{
    "success": true,
    "data": {
        "total": "10000",
        "pages": 1000,
        "page": 1,
        "limit": 10,
        "list": [
            {
                "id": "958462059753508864",
                "itemId": "958462059753508864",
                "appId": 730,
                "itemName": "\u68a6\u9b47\u6b66\u5668\u7bb1",
                "shortName": "\u68a6\u9b47\u6b66\u5668\u7bb1",
                "marketHashName": "Dreams & Nightmares Case",
                "imageUrl": "https://game-aesy.c5game.com/steam/730/605c8489af8cb754efc6273cad4a3da1.png",
                "itemInfo": {
                    "quality": "",
                    "qualityName": "",
                    "qualityColor": "",
                    "rarity": "rarity_common",
                    "rarityName": "\u666e\u901a\u7ea7",
                    "rarityColor": "#90ACCC",
                    "type": "csgo_type_weaponcase",
                    "typeName": "\u6b66\u5668\u7bb1",
                    "slot": "",
                    "slotName": "",
                    "hero": "",
                    "heroName": "",
                    "heroAvatar": "",
                    "exterior": "",
                    "exteriorName": "",
                    "exteriorColor": "",
                    "weapon": "",
                    "weaponName": "",
                    "itemSet": "set_community_30",
                    "itemSetName": "\u68a6\u9b47\u6536\u85cf\u54c1",
                    "stickerCapsule": "",
                    "stickerCapsuleName": "",
                    "patchCapsule": "",
                    "patchCapsuleName": "",
                    "customPlayer": "",
                    "customPlayerName": "",
                    "category": "",
                    "categoryName": ""
                },
                "sellType": 1,
                "currencyId": 0,
                "price": 7.38,
                "cnyPrice": 7.38,
                "salePrice": 7.08,
                "subsidyPrice": 7.08,
                "quantity": 1185,
                "deals": 0,
                "activityTag": null,
                "tagList": [
                    {
                        "recommendTag": "\u70ed\u5ea6\u8fc7\u4e07",
                        "detailTag": "\u70ed\u5ea6\u8fc7\u4e07",
                        "tagColour": "#ff0000",
                        "urlType": 1,
                        "detailUrl": "c5game://main.app/popularSkin"
                    }
                ],
                "subsidyTag": null
            },
            {
                "id": "553434958",
                "itemId": "553434958",
                "appId": 730,
                "itemName": "\u5370\u82b1 | kennyS | 2017\u5e74\u514b\u62c9\u79d1\u592b\u9526\u6807\u8d5b",
                "shortName": "kennyS | 2017\u5e74\u514b\u62c9\u79d1\u592b\u9526\u6807\u8d5b",
                "marketHashName": "Sticker | kennyS | Krakow 2017",
                "imageUrl": "https://game-aesy.c5game.com/steam/730/b353c2225fe4b350ae10fba4d92f9d58.png",
                "itemInfo": {
                    "quality": "",
                    "qualityName": "",
                    "qualityColor": "",
                    "rarity": "rarity_rare",
                    "rarityName": "\u9ad8\u7ea7",
                    "rarityColor": "#4B69FF",
                    "type": "csgo_tool_sticker",
                    "typeName": "\u5370\u82b1",
                    "slot": "",
                    "slotName": "",
                    "hero": "",
                    "heroName": "",
                    "heroAvatar": "",
                    "exterior": "",
                    "exteriorName": "",
                    "exteriorColor": "",
                    "weapon": "",
                    "weaponName": "",
                    "itemSet": "",
                    "itemSetName": "",
                    "stickerCapsule": "crate_signature_pack_krakow2017_group_players_collection",
                    "stickerCapsuleName": "2017\u5e74\u514b\u62c9\u79d1\u592b\u9526\u6807\u8d5b\u9009\u624b\u4eb2\u7b14\u7b7e\u540d",
                    "patchCapsule": "",
                    "patchCapsuleName": "",
                    "customPlayer": "",
                    "customPlayerName": "",
                    "category": "",
                    "categoryName": ""
                },
                "sellType": 1,
                "currencyId": 0,
                "price": 199.3,
                "cnyPrice": 199.3,
                "salePrice": 191.32,
                "subsidyPrice": 191.32,
                "quantity": 25,
                "deals": 0,
                "activityTag": null,
                "tagList": [
                    {
                        "recommendTag": "\u70ed\u5ea6\u8fc7\u4e07",
                        "detailTag": "\u70ed\u5ea6\u8fc7\u4e07",
                        "tagColour": "#ff0000",
                        "urlType": 1,
                        "detailUrl": "c5game://main.app/popularSkin"
                    }
                ],
                "subsidyTag": null
            },
            {
                "id": "1227973",
                "itemId": "1227973",
                "appId": 730,
                "itemName": "Tec-9 | \u51b0\u51a0 (\u5d2d\u65b0\u51fa\u5382)",
                "shortName": "Tec-9 | \u51b0\u51a0",
                "marketHashName": "Tec-9 | Ice Cap (Factory New)",
                "imageUrl": "https://game-aesy.c5game.com/steam/730/289936d4830143e160b24753eed556e0.png",
                "itemInfo": {
                    "quality": "",
                    "qualityName": "",
                    "qualityColor": "",
                    "rarity": "rarity_rare_weapon",
                    "rarityName": "\u519b\u89c4\u7ea7",
                    "rarityColor": "#4B69FF",
                    "type": "csgo_type_pistol",
                    "typeName": "\u624b\u67aa",
                    "slot": "",
                    "slotName": "",
                    "hero": "",
                    "heroName": "",
                    "heroAvatar": "",
                    "exterior": "wearcategory0",
                    "exteriorName": "\u5d2d\u65b0\u51fa\u5382",
                    "exteriorColor": "#59F27F",
                    "weapon": "weapon_tec9",
                    "weaponName": "Tec-9",
                    "itemSet": "set_community_13",
                    "itemSetName": "\u4f3d\u739b\u6536\u85cf\u54c1",
                    "stickerCapsule": "",
                    "stickerCapsuleName": "",
                    "patchCapsule": "",
                    "patchCapsuleName": "",
                    "customPlayer": "",
                    "customPlayerName": "",
                    "category": "",
                    "categoryName": ""
                },
                "sellType": 1,
                "currencyId": 0,
                "price": 4.2,
                "cnyPrice": 4.2,
                "salePrice": 4.02,
                "subsidyPrice": 4.02,
                "quantity": 542,
                "deals": 0,
                "activityTag": null,
                "tagList": [
                    {
                        "recommendTag": "\u70ed\u5ea6\u8fc7\u4e07",
                        "detailTag": "\u70ed\u5ea6\u8fc7\u4e07",
                        "tagColour": "#ff0000",
                        "urlType": 1,
                        "detailUrl": "c5game://main.app/popularSkin"
                    }
                ],
                "subsidyTag": null
            },
            {
                "id": "1124792964523413504",
                "itemId": "1124792964523413504",
                "appId": 730,
                "itemName": "\u963f\u52aa\u6bd4\u65af\u6536\u85cf\u5305",
                "shortName": "\u963f\u52aa\u6bd4\u65af\u6536\u85cf\u5305",
                "marketHashName": "Anubis Collection Package",
                "imageUrl": "https://game-aesy.c5game.com/steam/730/878cf866ff640f1cd56be619dc88aa56.png",
                "itemInfo": {
                    "quality": "",
                    "qualityName": "",
                    "qualityColor": "",
                    "rarity": "rarity_common",
                    "rarityName": "\u666e\u901a\u7ea7",
                    "rarityColor": "#90ACCC",
                    "type": "csgo_type_weaponcase",
                    "typeName": "\u6b66\u5668\u7bb1",
                    "slot": "",
                    "slotName": "",
                    "hero": "",
                    "heroName": "",
                    "heroAvatar": "",
                    "exterior": "",
                    "exteriorName": "",
                    "exteriorColor": "",
                    "weapon": "",
                    "weaponName": "",
                    "itemSet": "set_anubis",
                    "itemSetName": "",
                    "stickerCapsule": "",
                    "stickerCapsuleName": "",
                    "patchCapsule": "",
                    "patchCapsuleName": "",
                    "customPlayer": "",
                    "customPlayerName": "",
                    "category": "",
                    "categoryName": ""
                },
                "sellType": 1,
                "currencyId": 0,
                "price": 9.06,
                "cnyPrice": 9.06,
                "salePrice": 8.68,
                "subsidyPrice": 8.68,
                "quantity": 2946,
                "deals": 0,
                "activityTag": null,
                "tagList": [
                    {
                        "recommendTag": "\u70ed\u5ea6\u8fc7\u4e07",
                        "detailTag": "\u70ed\u5ea6\u8fc7\u4e07",
                        "tagColour": "#ff0000",
                        "urlType": 1,
                        "detailUrl": "c5game://main.app/popularSkin"
                    }
                ],
                "subsidyTag": null
            },
            {
                "id": "553465777",
                "itemId": "553465777",
                "appId": 730,
                "itemName": "FN57 | \u7130\u8272\u53cd\u5e94 (\u4e45\u7ecf\u6c99\u573a)",
                "shortName": "FN57 | \u7130\u8272\u53cd\u5e94",
                "marketHashName": "Five-SeveN | Flame Test (Field-Tested)",
                "imageUrl": "https://game-aesy.c5game.com/steam/730/4e806b512000cfba6572a8e1b40dd084.png",
                "itemInfo": {
                    "quality": "",
                    "qualityName": "",
                    "qualityColor": "",
                    "rarity": "rarity_rare_weapon",
                    "rarityName": "\u519b\u89c4\u7ea7",
                    "rarityColor": "#4B69FF",
                    "type": "csgo_type_pistol",
                    "typeName": "\u624b\u67aa",
                    "slot": "",
                    "slotName": "",
                    "hero": "",
                    "heroName": "",
                    "heroAvatar": "",
                    "exterior": "wearcategory2",
                    "exteriorName": "\u4e45\u7ecf\u6c99\u573a",
                    "exteriorColor": "#f0ad4e",
                    "weapon": "weapon_fiveseven",
                    "weaponName": "FN57",
                    "itemSet": "set_community_19",
                    "itemSetName": "\u547d\u60ac\u4e00\u7ebf\u6536\u85cf\u54c1",
                    "stickerCapsule": "",
                    "stickerCapsuleName": "",
                    "patchCapsule": "",
                    "patchCapsuleName": "",
                    "customPlayer": "",
                    "customPlayerName": "",
                    "category": "",
                    "categoryName": ""
                },
                "sellType": 1,
                "currencyId": 0,
                "price": 0.36,
                "cnyPrice": 0.36,
                "salePrice": 0.34,
                "subsidyPrice": 0.34,
                "quantity": 1115,
                "deals": 0,
                "activityTag": null,
                "tagList": [
                    {
                        "recommendTag": "\u70ed\u5ea6\u8fc7\u4e07",
                        "detailTag": "\u70ed\u5ea6\u8fc7\u4e07",
                        "tagColour": "#ff0000",
                        "urlType": 1,
                        "detailUrl": "c5game://main.app/popularSkin"
                    }
                ],
                "subsidyTag": null
            },
            {
                "id": "863525411686617088",
                "itemId": "863525411686617088",
                "appId": 730,
                "itemName": "\u683c\u6d1b\u514b 18 \u578b | \u4e00\u76ee\u4e86\u7136 (\u4e45\u7ecf\u6c99\u573a)",
                "shortName": "\u683c\u6d1b\u514b 18 \u578b | \u4e00\u76ee\u4e86\u7136",
                "marketHashName": "Glock-18 | Clear Polymer (Field-Tested)",
                "imageUrl": "https://game-aesy.c5game.com/steam/730/b7f211093c56e353e53a61b1d3ee71d4.png",
                "itemInfo": {
                    "quality": "",
                    "qualityName": "",
                    "qualityColor": "",
                    "rarity": "rarity_rare_weapon",
                    "rarityName": "\u519b\u89c4\u7ea7",
                    "rarityColor": "#4B69FF",
                    "type": "csgo_type_pistol",
                    "typeName": "\u624b\u67aa",
                    "slot": "",
                    "slotName": "",
                    "hero": "",
                    "heroName": "",
                    "heroAvatar": "",
                    "exterior": "wearcategory2",
                    "exteriorName": "\u4e45\u7ecf\u6c99\u573a",
                    "exteriorColor": "#f0ad4e",
                    "weapon": "weapon_glock",
                    "weaponName": "\u683c\u6d1b\u514b 18 \u578b",
                    "itemSet": "set_community_28",
                    "itemSetName": "\u86c7\u566c\u6536\u85cf\u54c1",
                    "stickerCapsule": "",
                    "stickerCapsuleName": "",
                    "patchCapsule": "",
                    "patchCapsuleName": "",
                    "customPlayer": "",
                    "customPlayerName": "",
                    "category": "",
                    "categoryName": ""
                },
                "sellType": 1,
                "currencyId": 0,
                "price": 0.98,
                "cnyPrice": 0.98,
                "salePrice": 0.94,
                "subsidyPrice": 0.94,
                "quantity": 53,
                "deals": 0,
                "activityTag": null,
                "tagList": [
                    {
                        "recommendTag": "\u70ed\u5ea6\u8fc7\u4e07",
                        "detailTag": "\u70ed\u5ea6\u8fc7\u4e07",
                        "tagColour": "#ff0000",
                        "urlType": 1,
                        "detailUrl": "c5game://main.app/popularSkin"
                    }
                ],
                "subsidyTag": null
            },
            {
                "id": "553454763",
                "itemId": "553454763",
                "appId": 730,
                "itemName": "AK-47 | \u7687\u540e (\u7565\u6709\u78e8\u635f)",
                "shortName": "AK-47 | \u7687\u540e",
                "marketHashName": "AK-47 | The Empress (Minimal Wear)",
                "imageUrl": "https://game-aesy.c5game.com/steam/730/6c0ce82dbfd5c04e0adb8543d6f81cce.png",
                "itemInfo": {
                    "quality": "",
                    "qualityName": "",
                    "qualityColor": "",
                    "rarity": "rarity_ancient_weapon",
                    "rarityName": "\u9690\u79d8",
                    "rarityColor": "#EB4B4B",
                    "type": "csgo_type_rifle",
                    "typeName": "\u6b65\u67aa",
                    "slot": "",
                    "slotName": "",
                    "hero": "",
                    "heroName": "",
                    "heroAvatar": "",
                    "exterior": "wearcategory1",
                    "exteriorName": "\u7565\u6709\u78e8\u635f",
                    "exteriorColor": "#5cb85c",
                    "weapon": "weapon_ak47",
                    "weaponName": "AK-47",
                    "itemSet": "set_community_18",
                    "itemSetName": "\u5149\u8c31 2 \u53f7\u6536\u85cf\u54c1",
                    "stickerCapsule": "",
                    "stickerCapsuleName": "",
                    "patchCapsule": "",
                    "patchCapsuleName": "",
                    "customPlayer": "",
                    "customPlayerName": "",
                    "category": "",
                    "categoryName": ""
                },
                "sellType": 1,
                "currencyId": 0,
                "price": 281.0,
                "cnyPrice": 281.0,
                "salePrice": 269.76,
                "subsidyPrice": 269.76,
                "quantity": 224,
                "deals": 0,
                "activityTag": [
                    100
                ],
                "tagList": [
                    {
                        "recommendTag": "\u65b0\u4eba\u63a8\u8350",
                        "detailTag": "\u65b0\u4eba\u63a8\u8350>",
                        "tagColour": "#F7A93B",
                        "urlType": 1,
                        "detailUrl": "c5game://main.app/zoneActivity?name=\u65b0\u4eba\u63a8\u8350&id=1"
                    },
                    {
                        "recommendTag": "\u70ed\u5ea6\u8fc7\u4e07",
                        "detailTag": "\u70ed\u5ea6\u8fc7\u4e07",
                        "tagColour": "#ff0000",
                        "urlType": 1,
                        "detailUrl": "c5game://main.app/popularSkin"
                    }
                ],
                "subsidyTag": {
                    "recommendTag": "\u8865\u8d34",
                    "detailTag": "\u5343\u4e07\u8865\u8d34",
                    "tagColour": "#CC350E",
                    "urlType": null,
                    "detailUrl": null
                }
            },
            {
                "id": "23182",
                "itemId": "23182",
                "appId": 730,
                "itemName": "\u6cd5\u739b\u65af | \u6e56\u84dd\u6d82\u88c5 (\u7565\u6709\u78e8\u635f)",
                "shortName": "\u6cd5\u739b\u65af | \u6e56\u84dd\u6d82\u88c5",
                "marketHashName": "FAMAS | Cyanospatter (Minimal Wear)",
                "imageUrl": "https://game-aesy.c5game.com/steam/730/ceea5d5a5afb280776e73a97531d390d.png",
                "itemInfo": {
                    "quality": "",
                    "qualityName": "",
                    "qualityColor": "",
                    "rarity": "rarity_uncommon_weapon",
                    "rarityName": "\u5de5\u4e1a\u7ea7",
                    "rarityColor": "#5E98D9",
                    "type": "csgo_type_rifle",
                    "typeName": "\u6b65\u67aa",
                    "slot": "",
                    "slotName": "",
                    "hero": "",
                    "heroName": "",
                    "heroAvatar": "",
                    "exterior": "wearcategory1",
                    "exteriorName": "\u7565\u6709\u78e8\u635f",
                    "exteriorColor": "#5cb85c",
                    "weapon": "weapon_famas",
                    "weaponName": "\u6cd5\u739b\u65af",
                    "itemSet": "set_lake",
                    "itemSetName": "\u6e56\u7554\u6fc0\u6218\u6536\u85cf\u54c1",
                    "stickerCapsule": "",
                    "stickerCapsuleName": "",
                    "patchCapsule": "",
                    "patchCapsuleName": "",
                    "customPlayer": "",
                    "customPlayerName": "",
                    "category": "",
                    "categoryName": ""
                },
                "sellType": 1,
                "currencyId": 0,
                "price": 1.08,
                "cnyPrice": 1.08,
                "salePrice": 1.02,
                "subsidyPrice": 1.02,
                "quantity": 216,
                "deals": 0,
                "activityTag": null,
                "tagList": [
                    {
                        "recommendTag": "\u70ed\u5ea6\u8fc7\u4e07",
                        "detailTag": "\u70ed\u5ea6\u8fc7\u4e07",
                        "tagColour": "#ff0000",
                        "urlType": 1,
                        "detailUrl": "c5game://main.app/popularSkin"
                    }
                ],
                "subsidyTag": null
            },
            {
                "id": "23989",
                "itemId": "23989",
                "appId": 730,
                "itemName": "AK-47\uff08StatTrak\u2122\uff09 | \u7cbe\u82f1\u4e4b\u4f5c (\u4e45\u7ecf\u6c99\u573a)",
                "shortName": "AK-47 | \u7cbe\u82f1\u4e4b\u4f5c",
                "marketHashName": "StatTrak\u2122 AK-47 | Elite Build (Field-Tested)",
                "imageUrl": "https://game-aesy.c5game.com/steam/730/4106bb9239f138683866ca691d4132ee.png",
                "itemInfo": {
                    "quality": "strange",
                    "qualityName": "StatTrak\u2122",
                    "qualityColor": "#cf6a32",
                    "rarity": "rarity_rare_weapon",
                    "rarityName": "\u519b\u89c4\u7ea7",
                    "rarityColor": "#4B69FF",
                    "type": "csgo_type_rifle",
                    "typeName": "\u6b65\u67aa",
                    "slot": "",
                    "slotName": "",
                    "hero": "",
                    "heroName": "",
                    "heroAvatar": "",
                    "exterior": "wearcategory2",
                    "exteriorName": "\u4e45\u7ecf\u6c99\u573a",
                    "exteriorColor": "#f0ad4e",
                    "weapon": "weapon_ak47",
                    "weaponName": "AK-47",
                    "itemSet": "set_community_7",
                    "itemSetName": "\u5e7b\u5f69 2 \u53f7\u6536\u85cf\u54c1",
                    "stickerCapsule": "",
                    "stickerCapsuleName": "",
                    "patchCapsule": "",
                    "patchCapsuleName": "",
                    "customPlayer": "",
                    "customPlayerName": "",
                    "category": "",
                    "categoryName": ""
                },
                "sellType": 1,
                "currencyId": 0,
                "price": 25.9,
                "cnyPrice": 25.9,
                "salePrice": 24.86,
                "subsidyPrice": 24.86,
                "quantity": 155,
                "deals": 0,
                "activityTag": null,
                "tagList": [
                    {
                        "recommendTag": "\u65b0\u4eba\u63a8\u8350",
                        "detailTag": "\u65b0\u4eba\u63a8\u8350>",
                        "tagColour": "#F7A93B",
                        "urlType": 1,
                        "detailUrl": "c5game://main.app/zoneActivity?name=\u65b0\u4eba\u63a8\u8350&id=1"
                    },
                    {
                        "recommendTag": "\u70ed\u5ea6\u8fc7\u4e07",
                        "detailTag": "\u70ed\u5ea6\u8fc7\u4e07",
                        "tagColour": "#ff0000",
                        "urlType": 1,
                        "detailUrl": "c5game://main.app/popularSkin"
                    }
                ],
                "subsidyTag": null
            },
            {
                "id": "553454853",
                "itemId": "553454853",
                "appId": 730,
                "itemName": "M4A1 \u6d88\u97f3\u578b | \u7834\u788e\u94c5\u79cb (\u7565\u6709\u78e8\u635f)",
                "shortName": "M4A1 \u6d88\u97f3\u578b | \u7834\u788e\u94c5\u79cb",
                "marketHashName": "M4A1-S | Leaded Glass (Minimal Wear)",
                "imageUrl": "https://game-aesy.c5game.com/steam/730/0693bf2c91a3402851a733af331bd09b.png",
                "itemInfo": {
                    "quality": "",
                    "qualityName": "",
                    "qualityColor": "",
                    "rarity": "rarity_legendary_weapon",
                    "rarityName": "\u4fdd\u5bc6",
                    "rarityColor": "#D32CE6",
                    "type": "csgo_type_rifle",
                    "typeName": "\u6b65\u67aa",
                    "slot": "",
                    "slotName": "",
                    "hero": "",
                    "heroName": "",
                    "heroAvatar": "",
                    "exterior": "wearcategory1",
                    "exteriorName": "\u7565\u6709\u78e8\u635f",
                    "exteriorColor": "#5cb85c",
                    "weapon": "weapon_m4a1_silencer",
                    "weaponName": "M4A1 \u6d88\u97f3\u578b",
                    "itemSet": "set_community_18",
                    "itemSetName": "\u5149\u8c31 2 \u53f7\u6536\u85cf\u54c1",
                    "stickerCapsule": "",
                    "stickerCapsuleName": "",
                    "patchCapsule": "",
                    "patchCapsuleName": "",
                    "customPlayer": "",
                    "customPlayerName": "",
                    "category": "",
                    "categoryName": ""
                },
                "sellType": 1,
                "currencyId": 0,
                "price": 35.09,
                "cnyPrice": 35.09,
                "salePrice": 33.67,
                "subsidyPrice": 33.67,
                "quantity": 220,
                "deals": 0,
                "activityTag": [
                    100
                ],
                "tagList": [
                    {
                        "recommendTag": "\u70ed\u5ea6\u8fc7\u4e07",
                        "detailTag": "\u70ed\u5ea6\u8fc7\u4e07",
                        "tagColour": "#ff0000",
                        "urlType": 1,
                        "detailUrl": "c5game://main.app/popularSkin"
                    }
                ],
                "subsidyTag": {
                    "recommendTag": "\u8865\u8d34",
                    "detailTag": "\u5343\u4e07\u8865\u8d34",
                    "tagColour": "#CC350E",
                    "urlType": null,
                    "detailUrl": null
                }
            }
        ]
    },
    "errorCode": 0,
    "errorMsg": null,
    "errorData": null,
    "errorCodeStr": null
}